{
  "verboseLog" : false,
  "currentTact" : 0,
  "startBallOffset" : {
    "x" : 5.4,
    "y" : 0.1
  },
  "ballOwner" : "Я",
  "scheme" : "4-3-3",
  "currentPlayerPosition" : "ЦПЗ",
  "teamMateInfoIn" : [ {
    "number" : 1,
    "relativeCoordinates" : {
      "distance" : 12.0,
      "direction" : 75.0
    },
	"actorType" : "TEAMMATE",
	"actions" : [ {
	  "action" : "OUTPLAYING",
	  "duration" : 20,
	  "targetPlayerNumber" : 5,
	  "additionalParams" : "IN_DEPTH_ON_THE_RIGHT"
	  }
	]
  }, {
    "number" : 2,
    "relativeCoordinates" : {
      "distance" : 12.0,
      "direction" : -75.0
    },
	"actorType" : "TEAMMATE",
	"actions" : [  {
	  "action" : "OUTPLAYING",
	  "duration" : 20,
	  "targetPlayerNumber" : 6,
	  "additionalParams" : "IN_DEPTH_ON_THE_LEFT"
	  }
	]
  } ],
  "enemyInfoIn" : [ {
    "number" : 5,
    "relativeCoordinates" : {
      "distance" : 14.0,
      "direction" : 60.0
    },
	"actorType" : "ENEMY",
	"actions" : [ {
	  "action" : "BLOCK_OPPONENT",
	  "duration" : 20,
	  "targetPlayerNumber" : 1,
	  "additionalParams" : "LEFT"
	  }
	]
  }, {
    "number" : 6,
    "relativeCoordinates" : {
      "distance" : 14.0,
      "direction" : -60.0
    },
	"actorType" : "ENEMY",
	"actions" : [ {
	  "action" : "BLOCK_OPPONENT",
	  "duration" : 20,
	  "targetPlayerNumber" : 2
	  }
	]
  }, {
    "number" : 7,
    "relativeCoordinates" : {
      "distance" : 15.5,
      "direction" : 8.0
    },
	"actorType" : "ENEMY",
	"actions" : [ {
	  "action" : "INTERSEPT",
	  "duration" : 1,
	  "targetPlayerNumber" : 0
	  }, {
	  "action" : "BLOCK_OPPONENT",
	  "duration" : 20,
	  "targetPlayerNumber" : 0
	  }
	]
  } ],
  "myCoord" : {
    "x" : 50.0,
    "y" : 30.0
  },
  "myNeckPosition" : 90.0,
  "ourSide" : "LEFT"
}