{
  "verboseLog" : false,
  "currentTact" : 0,
  "startBallOffset" : {
    "x" : 3.0,
    "y" : 0.1
  },
  "ballOwner" : "Я",
  "scheme" : "4-3-3",
  "currentPlayerPosition" : "ЦН",
  "teamMateInfoIn" : [ {
    "number" : 1,
    "relativeCoordinates" : {
      "distance" : 12.2,
      "direction" : -80.0
    },
	"actorType" : "TEAMMATE",
	"actions" : [ {
	  "action" : "KEEP_TO_OFFSIDE",
	  "duration" : 20,
	  "additionalParams" : "LEFT"
	  }
	]
  }, {
    "number" : 2,
    "relativeCoordinates" : {
      "distance" : 12.0,
      "direction" : 75.0
    },
	"actorType" : "TEAMMATE",
	"actions" : [ {
	  "action" : "KEEP_TO_OFFSIDE",
	  "duration" : 20,
	  "additionalParams" : "RIGHT"
	  }
	]
  } ],
  "enemyInfoIn" : [ {
    "number" : 5,
    "relativeCoordinates" : {
      "distance" : 8.5,
      "direction" : -70.0
    },
	"actorType" : "ENEMY",
	"actions" : [ {
	  "action" : "INTERSEPT",
	  "duration" : 2,
	  "targetPlayerNumber" : 1
	  }, {
	  "action" : "DASH",
	  "duration" : 2,
	  "dashCoordinate" : {
	    "x" : 99.0,
        "y" : 30.0
	  }
	  }
	]
  }, {
    "number" : 6,
    "relativeCoordinates" : {
      "distance" : 10.8,
      "direction" : 50.0
    },
	"actorType" : "ENEMY",
	"actions" : [ {
	  "action" : "INTERSEPT",
	  "duration" : 2,
	  "targetPlayerNumber" : 1
	  }, {
	  "action" : "DASH",
	  "duration" : 2,
	  "dashCoordinate" : {
	    "x" : 99.0,
        "y" : 30.0
	  }
	  }
	]
  } ],
  "myCoord" : {
    "x" : 85.0,
    "y" : 30.0
  },
  "myNeckPosition" : 90.0,
  "ourSide" : "LEFT"
}